Proyecto_2/uP_tb.vcd
$date
	Thu Nov 19 15:16:11 2020
$end
$version
	Icarus Verilog
$end
$timescale
	1ps
$end
$scope module testbench $end
$var wire 4 ! data_bus [3:0] $end
$var wire 1 " z_flag $end
$var wire 8 # program_byte [7:0] $end
$var wire 1 $ phase $end
$var wire 4 % oprnd [3:0] $end
$var wire 4 & instr [3:0] $end
$var wire 1 ' c_flag $end
$var wire 12 ( address_RAM [11:0] $end
$var wire 4 ) accu [3:0] $end
$var wire 12 * PC [11:0] $end
$var wire 4 + FF_out [3:0] $end
$var reg 1 , clock $end
$var reg 4 - pushbuttons [3:0] $end
$var reg 1 . reset $end
$var integer 32 / immediateDelay [31:0] $end
$var integer 32 0 jumpDelay [31:0] $end
$var integer 32 1 memoryDelay [31:0] $end
$var integer 32 2 nota [31:0] $end
$scope module uPmodule $end
$var wire 1 , clock $end
$var wire 4 3 data_bus [3:0] $end
$var wire 1 4 enable_fetch $end
$var wire 4 5 pushbuttons [3:0] $end
$var wire 1 . reset $end
$var wire 1 " z_flag $end
$var wire 1 6 we $end
$var wire 8 7 program_byte [7:0] $end
$var wire 1 $ phase $end
$var wire 4 8 oprnd [3:0] $end
$var wire 1 9 load_counter $end
$var wire 4 : instr [3:0] $end
$var wire 2 ; flags [1:0] $end
$var wire 3 < f [2:0] $end
$var wire 1 = enable_out $end
$var wire 1 > enable_in $end
$var wire 1 ? enable_flags $end
$var wire 1 @ enable_counter $end
$var wire 1 A enable_bus2 $end
$var wire 1 B enable_bus1 $end
$var wire 1 C enable_accu $end
$var wire 1 D cs $end
$var wire 1 ' c_flag $end
$var wire 4 E alu_out [3:0] $end
$var wire 12 F address_RAM [11:0] $end
$var wire 4 G accu [3:0] $end
$var wire 12 H PC [11:0] $end
$var wire 4 I FF_out [3:0] $end
$scope module FLAGS $end
$var wire 1 , clk $end
$var wire 2 J d [1:0] $end
$var wire 1 ? enable $end
$var wire 1 . reset $end
$var reg 2 K q [1:0] $end
$upscope $end
$scope module PHASE $end
$var wire 1 , clk $end
$var wire 1 L d $end
$var wire 1 M enable $end
$var wire 1 . reset $end
$var wire 1 $ q $end
$scope module t $end
$var wire 1 , clk $end
$var wire 1 L d $end
$var wire 1 M enable $end
$var wire 1 . reset $end
$var reg 1 $ q $end
$upscope $end
$upscope $end
$scope module RAM $end
$var wire 12 N addr [11:0] $end
$var wire 1 , clk $end
$var wire 1 D cs $end
$var wire 4 O din [3:0] $end
$var wire 4 P dout [3:0] $end
$var wire 1 6 we $end
$upscope $end
$scope module ROM $end
$var wire 8 Q y [7:0] $end
$var wire 12 R addr [11:0] $end
$upscope $end
$scope module accumulator $end
$var wire 1 , clk $end
$var wire 1 C enable $end
$var wire 1 . reset $end
$var wire 4 S d [3:0] $end
$var reg 4 T q [3:0] $end
$upscope $end
$scope module alu $end
$var wire 4 U a [3:0] $end
$var wire 4 V b [3:0] $end
$var wire 3 W f [2:0] $end
$var wire 1 . reset $end
$var reg 1 ' c_out $end
$var reg 5 X overflow_aid [4:0] $end
$var reg 4 Y y [3:0] $end
$var reg 1 " zero $end
$upscope $end
$scope module bus1 $end
$var wire 4 Z a [3:0] $end
$var wire 1 B s $end
$var wire 4 [ y [3:0] $end
$upscope $end
$scope module bus2 $end
$var wire 4 \ a [3:0] $end
$var wire 1 A s $end
$var wire 4 ] y [3:0] $end
$upscope $end
$scope module counter $end
$var wire 1 9 a $end
$var wire 1 , clk $end
$var wire 1 @ enable $end
$var wire 12 ^ load [0:11] $end
$var wire 1 . reset $end
$var reg 12 _ out [0:11] $end
$upscope $end
$scope module decoder $end
$var wire 7 ` address [6:0] $end
$var reg 13 a data [12:0] $end
$upscope $end
$scope module fetch $end
$var wire 1 , clk $end
$var wire 8 b d [7:0] $end
$var wire 1 4 enable $end
$var wire 1 . reset $end
$var reg 8 c q [7:0] $end
$upscope $end
$scope module in $end
$var wire 4 d a [3:0] $end
$var wire 1 > s $end
$var wire 4 e y [3:0] $end
$upscope $end
$scope module out $end
$var wire 1 , clk $end
$var wire 4 f d [3:0] $end
$var wire 1 = enable $end
$var wire 1 . reset $end
$var reg 4 g q [3:0] $end
$upscope $end
$upscope $end
$upscope $end
$enddefinitions $end
#0
$dumpvars
bx g
bx f
bx e
b110 d
bx c
bx b
bx a
bx `
bx _
bx ^
bx ]
b0 \
bx [
bx Z
b0 Y
bx X
bx W
bx V
bx U
bx T
b0 S
bx R
bx Q
bx P
bx O
bx N
1M
xL
bx K
bx1 J
bx I
bx H
bx G
bx F
b0 E
xD
xC
xB
xA
x@
x?
x>
x=
bx <
bx ;
bx :
x9
bx 8
bx 7
x6
b110 5
z4
bx 3
b0 2
b100010100 1
b1010010000 0
b10000 /
0.
b110 -
0,
bx +
bx *
bx )
bx (
x'
bx &
bx %
x$
bx #
1"
bx !
$end
#2
b0 !
b0 3
b0 O
b0 P
b0 V
b0 [
b0 ]
b0 e
b0 f
0=
0B
0>
1A
06
0D
b0 <
b0 W
0?
0C
09
1@
b1000000001000 a
b0 %
b0 8
b0 Z
b0 &
b0 :
1L
b0 c
b0 )
b0 G
b0 T
b0 U
b0 +
b0 I
b0 g
0$
b0 `
b0 ;
b0 K
b10011110000 (
b10011110000 F
b10011110000 N
b10011110000 ^
b1001111 #
b1001111 7
b1001111 Q
b1001111 b
b0 *
b0 H
b0 R
b0 _
b1 J
0'
1.
#3
0.
#5
0L
b1 `
1$
b110111110000 (
b110111110000 F
b110111110000 N
b110111110000 ^
b11011111 #
b11011111 7
b11011111 Q
b11011111 b
b1 *
b1 H
b1 R
b1 _
1,
#10
0,
#15
1L
b0 `
0$
b10100010000 (
b10100010000 F
b10100010000 N
b10100010000 ^
b1010001 #
b1010001 7
b1010001 Q
b1010001 b
b10 *
b10 H
b10 R
b10 _
1,
#20
0,
#25
0L
b1 `
1$
b10000000000 (
b10000000000 F
b10000000000 N
b10000000000 ^
b1000000 #
b1000000 7
b1000000 Q
b1000000 b
b11 *
b11 H
b11 R
b11 _
1,
#30
0,
#35
1L
b0 `
0$
b10011110000 (
b10011110000 F
b10011110000 N
b10011110000 ^
b1001111 #
b1001111 7
b1001111 Q
b1001111 b
b100 *
b100 H
b100 R
b100 _
1,
#40
0,
#45
0L
b1 `
1$
b101010100000 (
b101010100000 F
b101010100000 N
b101010100000 ^
b10101010 #
b10101010 7
b10101010 Q
b10101010 b
b101 *
b101 H
b101 R
b101 _
1,
#50
0,
#55
1L
b0 `
0$
b1010000000 (
b1010000000 F
b1010000000 N
b1010000000 ^
b101000 #
b101000 7
b101000 Q
b101000 b
b110 *
b110 H
b110 R
b110 _
1,
#60
0,
#65
0L
b1 `
1$
b10010100000 (
b10010100000 F
b10010100000 N
b10010100000 ^
b1001010 #
b1001010 7
b1001010 Q
b1001010 b
b111 *
b111 H
b111 R
b111 _
1,
#70
0,
#75
1L
b0 `
0$
b1011000000 (
b1011000000 F
b1011000000 N
b1011000000 ^
b101100 #
b101100 7
b101100 Q
b101100 b
b1000 *
b1000 H
b1000 R
b1000 _
1,
#80
0,
#85
0L
b1 `
1$
b101000010000 (
b101000010000 F
b101000010000 N
b101000010000 ^
b10100001 #
b10100001 7
b10100001 Q
b10100001 b
b1001 *
b1001 H
b1001 R
b1001 _
1,
#90
0,
#95
1L
b0 `
0$
b111010110000 (
b111010110000 F
b111010110000 N
b111010110000 ^
b11101011 #
b11101011 7
b11101011 Q
b11101011 b
b1010 *
b1010 H
b1010 R
b1010 _
1,
#100
0,
#105
0L
b1 `
1$
b110100000000 (
b110100000000 F
b110100000000 N
b110100000000 ^
b11010000 #
b11010000 7
b11010000 Q
b11010000 b
b1011 *
b1011 H
b1011 R
b1011 _
1,
#110
0,
#115
1L
b0 `
0$
b10100000000 (
b10100000000 F
b10100000000 N
b10100000000 ^
b1010000 #
b1010000 7
b1010000 Q
b1010000 b
b1100 *
b1100 H
b1100 R
b1100 _
1,
#120
0,
#125
0L
b1 `
1$
b11100000000 (
b11100000000 F
b11100000000 N
b11100000000 ^
b1110000 #
b1110000 7
b1110000 Q
b1110000 b
b1101 *
b1101 H
b1101 R
b1101 _
1,
#130
0,
#135
1L
b0 `
0$
b0 (
b0 F
b0 N
b0 ^
b0 #
b0 7
b0 Q
b0 b
b1110 *
b1110 H
b1110 R
b1110 _
1,
#140
0,
#145
0L
b1 `
1$
b10011110000 (
b10011110000 F
b10011110000 N
b10011110000 ^
b1001111 #
b1001111 7
b1001111 Q
b1001111 b
b1111 *
b1111 H
b1111 R
b1111 _
1,
#150
0,
#155
1L
b0 `
0$
b11100010000 (
b11100010000 F
b11100010000 N
b11100010000 ^
b1110001 #
b1110001 7
b1110001 Q
b1110001 b
b10000 *
b10000 H
b10000 R
b10000 _
1,
#160
0,
#165
0L
b1 `
1$
b100010000 (
b100010000 F
b100010000 N
b100010000 ^
b10001 #
b10001 7
b10001 Q
b10001 b
b10001 *
b10001 H
b10001 R
b10001 _
1,
#170
0,
#175
1L
b0 `
0$
b10010100000 (
b10010100000 F
b10010100000 N
b10010100000 ^
b1001010 #
b1001010 7
b1001010 Q
b1001010 b
b10010 *
b10010 H
b10010 R
b10010 _
1,
#180
0,
#185
0L
b1 `
1$
b11100100000 (
b11100100000 F
b11100100000 N
b11100100000 ^
b1110010 #
b1110010 7
b1110010 Q
b1110010 b
b10011 *
b10011 H
b10011 R
b10011 _
1,
#190
0,
#195
1L
b0 `
0$
b1000100000 (
b1000100000 F
b1000100000 N
b1000100000 ^
b100010 #
b100010 7
b100010 Q
b100010 b
b10100 *
b10100 H
b10100 R
b10100 _
1,
#200
0,
#205
0L
b1 `
1$
b10000010000 (
b10000010000 F
b10000010000 N
b10000010000 ^
b1000001 #
b1000001 7
b1000001 Q
b1000001 b
b10101 *
b10101 H
b10101 R
b10101 _
1,
#210
0,
#215
1L
b0 `
0$
b11100110000 (
b11100110000 F
b11100110000 N
b11100110000 ^
b1110011 #
b1110011 7
b1110011 Q
b1110011 b
b10110 *
b10110 H
b10110 R
b10110 _
1,
#220
0,
#225
0L
b1 `
1$
b1100110000 (
b1100110000 F
b1100110000 N
b1100110000 ^
b110011 #
b110011 7
b110011 Q
b110011 b
b10111 *
b10111 H
b10111 R
b10111 _
1,
#230
0,
#235
1L
b0 `
0$
b11000000000 (
b11000000000 F
b11000000000 N
b11000000000 ^
b1100000 #
b1100000 7
b1100000 Q
b1100000 b
b11000 *
b11000 H
b11000 R
b11000 _
1,
#236
b1110 -
b1110 5
b1110 d
#240
0,
#245
0L
b1 `
1$
b0 (
b0 F
b0 N
b0 ^
b0 #
b0 7
b0 Q
b0 b
b11001 *
b11001 H
b11001 R
b11001 _
1,
#250
0,
#255
1L
b0 `
0$
b11000010000 (
b11000010000 F
b11000010000 N
b11000010000 ^
b1100001 #
b1100001 7
b1100001 Q
b1100001 b
b11010 *
b11010 H
b11010 R
b11010 _
1,
#260
0,
#265
0L
b1 `
1$
b100010000 (
b100010000 F
b100010000 N
b100010000 ^
b10001 #
b10001 7
b10001 Q
b10001 b
b11011 *
b11011 H
b11011 R
b11011 _
1,
#270
0,
#275
1L
b0 `
0$
b11000100000 (
b11000100000 F
b11000100000 N
b11000100000 ^
b1100010 #
b1100010 7
b1100010 Q
b1100010 b
b11100 *
b11100 H
b11100 R
b11100 _
1,
#280
0,
#285
0L
b1 `
1$
b1000100000 (
b1000100000 F
b1000100000 N
b1000100000 ^
b100010 #
b100010 7
b100010 Q
b100010 b
b11101 *
b11101 H
b11101 R
b11101 _
1,
#290
0,
#295
1L
b0 `
0$
b11000110000 (
b11000110000 F
b11000110000 N
b11000110000 ^
b1100011 #
b1100011 7
b1100011 Q
b1100011 b
b11110 *
b11110 H
b11110 R
b11110 _
1,
#300
0,
#305
0L
b1 `
1$
b1100110000 (
b1100110000 F
b1100110000 N
b1100110000 ^
b110011 #
b110011 7
b110011 Q
b110011 b
b11111 *
b11111 H
b11111 R
b11111 _
1,
#310
0,
#315
1L
b0 `
0$
b10010100000 (
b10010100000 F
b10010100000 N
b10010100000 ^
b1001010 #
b1001010 7
b1001010 Q
b1001010 b
b100000 *
b100000 H
b100000 R
b100000 _
1,
#320
0,
#325
0L
b1 `
1$
b111100100000 (
b111100100000 F
b111100100000 N
b111100100000 ^
b11110010 #
b11110010 7
b11110010 Q
b11110010 b
b100001 *
b100001 H
b100001 R
b100001 _
1,
#330
0,
#335
1L
b0 `
0$
b1000100000 (
b1000100000 F
b1000100000 N
b1000100000 ^
b100010 #
b100010 7
b100010 Q
b100010 b
b100010 *
b100010 H
b100010 R
b100010 _
1,
#340
0,
#345
0L
b1 `
1$
b10011110000 (
b10011110000 F
b10011110000 N
b10011110000 ^
b1001111 #
b1001111 7
b1001111 Q
b1001111 b
b100011 *
b100011 H
b100011 R
b100011 _
1,
#350
0,
#355
1L
b0 `
0$
b101100110000 (
b101100110000 F
b101100110000 N
b101100110000 ^
b10110011 #
b10110011 7
b10110011 Q
b10110011 b
b100100 *
b100100 H
b100100 R
b100100 _
1,
#360
0,
#365
0L
b1 `
1$
b1100110000 (
b1100110000 F
b1100110000 N
b1100110000 ^
b110011 #
b110011 7
b110011 Q
b110011 b
b100101 *
b100101 H
b100101 R
b100101 _
1,
#370
0,
#375
1L
b0 `
0$
b10010000000 (
b10010000000 F
b10010000000 N
b10010000000 ^
b1001000 #
b1001000 7
b1001000 Q
b1001000 b
b100110 *
b100110 H
b100110 R
b100110 _
1,
#380
0,
#385
0L
b1 `
1$
b1100100000 (
b1100100000 F
b1100100000 N
b1100100000 ^
b110010 #
b110010 7
b110010 Q
b110010 b
b100111 *
b100111 H
b100111 R
b100111 _
1,
#390
0,
#395
1L
b0 `
0$
b1000100000 (
b1000100000 F
b1000100000 N
b1000100000 ^
b100010 #
b100010 7
b100010 Q
b100010 b
b101000 *
b101000 H
b101000 R
b101000 _
1,
#400
0,
#405
0L
b1 `
1$
b10011000000 (
b10011000000 F
b10011000000 N
b10011000000 ^
b1001100 #
b1001100 7
b1001100 Q
b1001100 b
b101001 *
b101001 H
b101001 R
b101001 _
1,
#410
0,
#415
1L
b0 `
0$
b1100100000 (
b1100100000 F
b1100100000 N
b1100100000 ^
b110010 #
b110010 7
b110010 Q
b110010 b
b101010 *
b101010 H
b101010 R
b101010 _
1,
#420
0,
#425
0L
b1 `
1$
b1000100000 (
b1000100000 F
b1000100000 N
b1000100000 ^
b100010 #
b100010 7
b100010 Q
b100010 b
b101011 *
b101011 H
b101011 R
b101011 _
1,
#430
0,
#435
1L
b0 `
0$
b110010100000 (
b110010100000 F
b110010100000 N
b110010100000 ^
b11001010 #
b11001010 7
b11001010 Q
b11001010 b
b101100 *
b101100 H
b101100 R
b101100 _
1,
#440
0,
#445
0L
b1 `
1$
b10000 (
b10000 F
b10000 N
b10000 ^
b1 #
b1 7
b1 Q
b1 b
b101101 *
b101101 H
b101101 R
b101101 _
1,
#450
0,
#455
1L
b0 `
0$
bx0000 (
bx0000 F
bx0000 N
bx0000 ^
bx #
bx 7
bx Q
bx b
b101110 *
b101110 H
b101110 R
b101110 _
1,
#460
0,
#465
0L
b1 `
1$
b101111 *
b101111 H
b101111 R
b101111 _
1,
#470
0,
#475
1L
b0 `
0$
b110000 *
b110000 H
b110000 R
b110000 _
1,
#480
0,
#485
0L
b1 `
1$
b110001 *
b110001 H
b110001 R
b110001 _
1,
#490
0,
#495
1L
b0 `
0$
b110010 *
b110010 H
b110010 R
b110010 _
1,
#500
0,
#505
0L
b1 `
1$
b110011 *
b110011 H
b110011 R
b110011 _
1,
#510
0,
#515
1L
b0 `
0$
b110100 *
b110100 H
b110100 R
b110100 _
1,
#520
0,
#525
0L
b1 `
1$
b110101 *
b110101 H
b110101 R
b110101 _
1,
#530
0,
#535
1L
b0 `
0$
b110110 *
b110110 H
b110110 R
b110110 _
1,
#540
0,
#545
0L
b1 `
1$
b110111 *
b110111 H
b110111 R
b110111 _
1,
#550
0,
#555
1L
b0 `
0$
b111000 *
b111000 H
b111000 R
b111000 _
1,
#560
0,
#565
0L
b1 `
1$
b111001 *
b111001 H
b111001 R
b111001 _
1,
#570
0,
#575
1L
b0 `
0$
b111010 *
b111010 H
b111010 R
b111010 _
1,
#580
0,
#585
0L
b1 `
1$
b111011 *
b111011 H
b111011 R
b111011 _
1,
#590
0,
#595
1L
b0 `
0$
b111100 *
b111100 H
b111100 R
b111100 _
1,
#600
0,
#605
0L
b1 `
1$
b111101 *
b111101 H
b111101 R
b111101 _
1,
#610
0,
#615
1L
b0 `
0$
b111110 *
b111110 H
b111110 R
b111110 _
1,
#620
0,
#625
0L
b1 `
1$
b111111 *
b111111 H
b111111 R
b111111 _
1,
#630
0,
#635
1L
b0 `
0$
b1000000 *
b1000000 H
b1000000 R
b1000000 _
1,
#640
0,
#645
0L
b1 `
1$
b1000001 *
b1000001 H
b1000001 R
b1000001 _
1,
#650
0,
#655
1L
b0 `
0$
b1000010 *
b1000010 H
b1000010 R
b1000010 _
1,
#660
0,
#665
0L
b1 `
1$
b1000011 *
b1000011 H
b1000011 R
b1000011 _
1,
#670
0,
#675
1L
b0 `
0$
b1000100 *
b1000100 H
b1000100 R
b1000100 _
1,
#680
0,
#685
0L
b1 `
1$
b1000101 *
b1000101 H
b1000101 R
b1000101 _
1,
#690
0,
#695
1L
b0 `
0$
b1000110 *
b1000110 H
b1000110 R
b1000110 _
1,
#700
0,
#705
0L
b1 `
1$
b1000111 *
b1000111 H
b1000111 R
b1000111 _
1,
#710
0,
#715
1L
b0 `
0$
b1001000 *
b1001000 H
b1001000 R
b1001000 _
1,
#720
0,
#725
0L
b1 `
1$
b1001001 *
b1001001 H
b1001001 R
b1001001 _
1,
#730
0,
#735
1L
b0 `
0$
b1001010 *
b1001010 H
b1001010 R
b1001010 _
1,
#740
0,
#745
0L
b1 `
1$
b1001011 *
b1001011 H
b1001011 R
b1001011 _
1,
#750
0,
#755
1L
b0 `
0$
b1001100 *
b1001100 H
b1001100 R
b1001100 _
1,
#760
0,
#765
0L
b1 `
1$
b1001101 *
b1001101 H
b1001101 R
b1001101 _
1,
#770
0,
#775
1L
b0 `
0$
b1001110 *
b1001110 H
b1001110 R
b1001110 _
1,
#780
0,
#785
0L
b1 `
1$
b1001111 *
b1001111 H
b1001111 R
b1001111 _
1,
#790
0,
#795
1L
b0 `
0$
b10011110000 (
b10011110000 F
b10011110000 N
b10011110000 ^
b1001111 #
b1001111 7
b1001111 Q
b1001111 b
b1010000 *
b1010000 H
b1010000 R
b1010000 _
1,
#800
0,
#805
0L
b1 `
1$
b101000010000 (
b101000010000 F
b101000010000 N
b101000010000 ^
b10100001 #
b10100001 7
b10100001 Q
b10100001 b
b1010001 *
b1010001 H
b1010001 R
b1010001 _
1,
#810
0,
#815
1L
b0 `
0$
b100011110000 (
b100011110000 F
b100011110000 N
b100011110000 ^
b10001111 #
b10001111 7
b10001111 Q
b10001111 b
b1010010 *
b1010010 H
b1010010 R
b1010010 _
1,
#820
0,
#825
0L
b1 `
1$
b10010010000 (
b10010010000 F
b10010010000 N
b10010010000 ^
b1001001 #
b1001001 7
b1001001 Q
b1001001 b
b1010011 *
b1010011 H
b1010011 R
b1010011 _
1,
#830
0,
#835
1L
b0 `
0$
bx0000 (
bx0000 F
bx0000 N
bx0000 ^
bx #
bx 7
bx Q
bx b
b1010100 *
b1010100 H
b1010100 R
b1010100 _
1,
#840
0,
#845
0L
b1 `
1$
b1010101 *
b1010101 H
b1010101 R
b1010101 _
1,
#850
0,
#855
1L
b0 `
0$
b1010110 *
b1010110 H
b1010110 R
b1010110 _
1,
#860
0,
#865
0L
b1 `
1$
b1010111 *
b1010111 H
b1010111 R
b1010111 _
1,
#870
0,
#875
1L
b0 `
0$
b1011000 *
b1011000 H
b1011000 R
b1011000 _
1,
#880
0,
#885
0L
b1 `
1$
b1011001 *
b1011001 H
b1011001 R
b1011001 _
1,
#890
0,
#895
1L
b0 `
0$
b1011010 *
b1011010 H
b1011010 R
b1011010 _
1,
#900
0,
#905
0L
b1 `
1$
b1011011 *
b1011011 H
b1011011 R
b1011011 _
1,
#910
0,
#915
1L
b0 `
0$
b1011100 *
b1011100 H
b1011100 R
b1011100 _
1,
#920
0,
#925
0L
b1 `
1$
b1011101 *
b1011101 H
b1011101 R
b1011101 _
1,
#930
0,
#935
1L
b0 `
0$
b1011110 *
b1011110 H
b1011110 R
b1011110 _
1,
#940
0,
#945
0L
b1 `
1$
b1011111 *
b1011111 H
b1011111 R
b1011111 _
1,
#950
0,
#955
1L
b0 `
0$
b1100000 *
b1100000 H
b1100000 R
b1100000 _
1,
#960
0,
#965
0L
b1 `
1$
b1100001 *
b1100001 H
b1100001 R
b1100001 _
1,
#970
0,
#975
1L
b0 `
0$
b1100010 *
b1100010 H
b1100010 R
b1100010 _
1,
#980
0,
#985
0L
b1 `
1$
b1100011 *
b1100011 H
b1100011 R
b1100011 _
1,
#990
0,
#995
1L
b0 `
0$
b1100100 *
b1100100 H
b1100100 R
b1100100 _
1,
