Proyecto_2/uP_tb.vcd
$date
	Thu Nov 19 19:13:56 2020
$end
$version
	Icarus Verilog
$end
$timescale
	1ps
$end
$scope module testbench $end
$var wire 4 ! data_bus [3:0] $end
$var wire 1 " z_flag $end
$var wire 8 # program_byte [7:0] $end
$var wire 1 $ phase $end
$var wire 4 % oprnd [3:0] $end
$var wire 4 & instr [3:0] $end
$var wire 1 ' c_flag $end
$var wire 12 ( address_RAM [11:0] $end
$var wire 4 ) accu [3:0] $end
$var wire 12 * PC [11:0] $end
$var wire 4 + FF_out [3:0] $end
$var reg 1 , clock $end
$var reg 4 - pushbuttons [3:0] $end
$var reg 1 . reset $end
$var integer 32 / immediateDelay [31:0] $end
$var integer 32 0 jumpDelay [31:0] $end
$var integer 32 1 memoryDelay [31:0] $end
$var integer 32 2 nota [31:0] $end
$scope module uPmodule $end
$var wire 1 , clock $end
$var wire 4 3 data_bus [3:0] $end
$var wire 4 4 pushbuttons [3:0] $end
$var wire 1 . reset $end
$var wire 1 5 zero $end
$var wire 1 " z_flag $end
$var wire 1 6 we $end
$var wire 8 7 program_byte [7:0] $end
$var wire 1 $ phase $end
$var wire 4 8 oprnd [3:0] $end
$var wire 1 9 load_counter $end
$var wire 4 : instr [3:0] $end
$var wire 2 ; flags [1:0] $end
$var wire 3 < f [2:0] $end
$var wire 1 = enable_out $end
$var wire 1 > enable_in $end
$var wire 1 ? enable_flags $end
$var wire 1 @ enable_counter $end
$var wire 1 A enable_bus2 $end
$var wire 1 B enable_bus1 $end
$var wire 1 C enable_accu $end
$var wire 1 D cs $end
$var wire 1 ' c_flag $end
$var wire 1 E c $end
$var wire 4 F alu_out [3:0] $end
$var wire 12 G address_RAM [11:0] $end
$var wire 4 H accu [3:0] $end
$var wire 12 I PC [11:0] $end
$var wire 4 J FF_out [3:0] $end
$scope module FLAGS $end
$var wire 1 , clk $end
$var wire 2 K d [1:0] $end
$var wire 1 ? enable $end
$var wire 1 . reset $end
$var reg 2 L q [1:0] $end
$upscope $end
$scope module PHASE $end
$var wire 1 , clk $end
$var wire 1 M d $end
$var wire 1 N enable $end
$var wire 1 . reset $end
$var wire 1 $ q $end
$scope module t $end
$var wire 1 , clk $end
$var wire 1 M d $end
$var wire 1 N enable $end
$var wire 1 . reset $end
$var reg 1 $ q $end
$upscope $end
$upscope $end
$scope module RAM $end
$var wire 12 O addr [11:0] $end
$var wire 1 , clk $end
$var wire 1 D cs $end
$var wire 4 P din [3:0] $end
$var wire 4 Q dout [3:0] $end
$var wire 1 6 we $end
$upscope $end
$scope module ROM $end
$var wire 8 R y [7:0] $end
$var wire 12 S addr [11:0] $end
$upscope $end
$scope module accumulator $end
$var wire 1 , clk $end
$var wire 1 C enable $end
$var wire 1 . reset $end
$var wire 4 T d [3:0] $end
$var reg 4 U q [3:0] $end
$upscope $end
$scope module alu $end
$var wire 4 V a [3:0] $end
$var wire 4 W b [3:0] $end
$var wire 3 X f [2:0] $end
$var wire 1 . reset $end
$var reg 1 E c_out $end
$var reg 4 Y y [3:0] $end
$var reg 1 5 zero $end
$upscope $end
$scope module bus1 $end
$var wire 4 Z a [3:0] $end
$var wire 1 B s $end
$var wire 4 [ y [3:0] $end
$upscope $end
$scope module bus2 $end
$var wire 4 \ a [3:0] $end
$var wire 1 A s $end
$var wire 4 ] y [3:0] $end
$upscope $end
$scope module counter $end
$var wire 1 9 a $end
$var wire 1 , clk $end
$var wire 1 @ enable $end
$var wire 12 ^ load [0:11] $end
$var wire 1 . reset $end
$var reg 12 _ out [0:11] $end
$upscope $end
$scope module decoder $end
$var wire 7 ` address [6:0] $end
$var reg 13 a data [12:0] $end
$upscope $end
$scope module fetch $end
$var wire 1 , clk $end
$var wire 8 b d [7:0] $end
$var wire 1 c enable $end
$var wire 1 . reset $end
$var reg 8 d q [7:0] $end
$upscope $end
$scope module in $end
$var wire 4 e a [3:0] $end
$var wire 1 > s $end
$var wire 4 f y [3:0] $end
$upscope $end
$scope module out $end
$var wire 1 , clk $end
$var wire 4 g d [3:0] $end
$var wire 1 = enable $end
$var wire 1 . reset $end
$var reg 4 h q [3:0] $end
$upscope $end
$upscope $end
$upscope $end
$enddefinitions $end
#0
$dumpvars
bx h
bx g
bx f
b110 e
bx d
xc
bx b
bx a
bx `
bx _
bx ^
bx ]
b0 \
bx [
bx Z
b0 Y
bx X
bx W
bx V
bx U
b0 T
bx S
bx R
bx Q
bx P
bx O
1N
xM
bx L
b1 K
bx J
bx I
bx H
bx G
b0 F
0E
xD
xC
xB
xA
x@
x?
x>
x=
bx <
bx ;
bx :
x9
bx 8
bx 7
x6
15
b110 4
bx 3
b0 2
b100010100 1
b1010010000 0
b10000 /
0.
b110 -
0,
bx +
bx *
bx )
bx (
x'
bx &
bx %
x$
bx #
x"
bx !
$end
#2
b0 !
b0 3
b0 P
b0 Q
b0 W
b0 [
b0 ]
b0 f
b0 g
0=
0B
0>
1A
06
0D
b0 <
b0 X
0?
0C
09
1@
b1000000001000 a
b0 %
b0 8
b0 Z
b0 &
b0 :
1M
1c
0"
0'
b1001111 (
b1001111 G
b1001111 O
b1001111 ^
b1001111 #
b1001111 7
b1001111 R
b1001111 b
b0 *
b0 I
b0 S
b0 _
b0 d
b0 )
b0 H
b0 U
b0 V
b0 +
b0 J
b0 h
0$
b0 `
b0 ;
b0 L
1.
#3
0.
#5
b0 K
05
b1111 F
b1111 T
b1111 Y
b1111 \
b1111 !
b1111 3
b1111 P
b1111 Q
b1111 W
b1111 [
b1111 ]
b1111 f
b1111 g
1B
0A
b10 <
b10 X
1?
1C
0@
b11010000010 a
0M
0c
b1111 %
b1111 8
b1111 Z
b100 &
b100 :
b100001 `
1$
b1001111 d
b111111011111 (
b111111011111 G
b111111011111 O
b111111011111 ^
b11011111 #
b11011111 7
b11011111 R
b11011111 b
b1 *
b1 I
b1 S
b1 _
1,
#10
0,
#15
0B
1A
b0 <
b0 X
0?
0C
1@
b1000000001000 a
1M
1c
b1111 )
b1111 H
b1111 U
b1111 V
b100000 `
0$
1,
#16
b1000110 2
#20
0,
#25
1=
0@
b1001 a
0M
0c
b1101 &
b1101 :
b1101001 `
1$
b11011111 d
b111101010001 (
b111101010001 G
b111101010001 O
b111101010001 ^
b1010001 #
b1010001 7
b1010001 R
b1010001 b
b10 *
b10 I
b10 S
b10 _
1,
#30
0,
#35
0=
1@
b1000000001000 a
1M
1c
b1111 +
b1111 J
b1111 h
b1101000 `
0$
1,
#36
b1100111 2
#40
0,
#45
b110 F
b110 T
b110 Y
b110 \
b110 !
b110 3
b110 P
b110 Q
b110 W
b110 [
b110 ]
b110 f
b110 g
1>
0A
b10 <
b10 X
1?
1C
0@
b11010000100 a
0M
0c
b1 %
b1 8
b1 Z
b101 &
b101 :
b101001 `
1$
b1010001 d
b101000000 (
b101000000 G
b101000000 O
b101000000 ^
b1000000 #
b1000000 7
b1000000 R
b1000000 b
b11 *
b11 I
b11 S
b11 _
1,
#50
0,
#55
0>
1A
b0 <
b0 X
0?
0C
1@
b1000000001000 a
1M
1c
b110 )
b110 H
b110 U
b110 V
b101000 `
0$
1,
#56
b10001000 2
#60
0,
#65
b1 K
15
b0 F
b0 T
b0 Y
b0 \
b0 !
b0 3
b0 P
b0 Q
b0 W
b0 [
b0 ]
b0 f
b0 g
1B
0A
b10 <
b10 X
1?
1C
0@
b11010000010 a
0M
0c
b0 %
b0 8
b0 Z
b100 &
b100 :
b100001 `
1$
b1000000 d
b1001111 (
b1001111 G
b1001111 O
b1001111 ^
b1001111 #
b1001111 7
b1001111 R
b1001111 b
b100 *
b100 I
b100 S
b100 _
1,
#70
0,
#75
0B
1A
b0 <
b0 X
0?
0C
1@
b1000000001000 a
1M
1c
1"
b0 )
b0 H
b0 U
b0 V
0$
b100010 `
b1 ;
b1 L
1,
#80
0,
#85
b0 K
05
b1111 F
b1111 T
b1111 Y
b1111 \
b1111 !
b1111 3
b1111 P
b1111 Q
b1111 W
b1111 [
b1111 ]
b1111 f
b1111 g
1B
0A
b10 <
b10 X
1?
1C
0@
b11010000010 a
0M
0c
b1111 %
b1111 8
b1111 Z
b100011 `
1$
b1001111 d
b111110101010 (
b111110101010 G
b111110101010 O
b111110101010 ^
b10101010 #
b10101010 7
b10101010 R
b10101010 b
b101 *
b101 I
b101 S
b101 _
1,
#90
0,
#95
0B
1A
b0 <
b0 X
0?
0C
1@
b1000000001000 a
1M
1c
0"
b1111 )
b1111 H
b1111 U
b1111 V
0$
b100000 `
b0 ;
b0 L
1,
#100
0,
#105
b1010 !
b1010 3
b1010 P
b1010 Q
b1010 W
b1010 [
b1010 ]
b1010 f
b1010 g
b10 K
1E
b1001 F
b1001 T
b1001 Y
b1001 \
1B
0A
b11 <
b11 X
1?
1C
0@
b11011000010 a
0M
0c
b1010 %
b1010 8
b1010 Z
b1010 &
b1010 :
b1010001 `
1$
b10101010 d
b101000101000 (
b101000101000 G
b101000101000 O
b101000101000 ^
b101000 #
b101000 7
b101000 R
b101000 b
b110 *
b110 I
b110 S
b110 _
1,
#110
0,
#115
b1001 !
b1001 3
b1001 P
b1001 Q
b1001 W
b1001 [
b1001 ]
b1001 f
b1001 g
0B
1A
b0 <
b0 X
0?
0C
1@
b1000000001000 a
b1001 F
b1001 T
b1001 Y
b1001 \
b0 K
0E
1M
1c
1'
b1001 )
b1001 H
b1001 U
b1001 V
0$
b1010100 `
b10 ;
b10 L
1,
#116
b10101001 2
#120
0,
#125
b1000 !
b1000 3
b1000 P
b1000 Q
b1000 W
b1000 [
b1000 ]
b1000 f
b1000 g
b0 K
05
b1 F
b1 T
b1 Y
b1 \
1B
0A
b1 <
b1 X
1?
0@
b1001000010 a
0M
0c
b1000 %
b1000 8
b1000 Z
b10 &
b10 :
b10101 `
1$
b101000 d
b100001001010 (
b100001001010 G
b100001001010 O
b100001001010 ^
b1001010 #
b1001010 7
b1001010 R
b1001010 b
b111 *
b111 I
b111 S
b111 _
1,
#130
0,
#135
b1001 !
b1001 3
b1001 P
b1001 Q
b1001 W
b1001 [
b1001 ]
b1001 f
b1001 g
b1001 F
b1001 T
b1001 Y
b1001 \
0B
1A
b0 <
b0 X
0?
1@
b1000000001000 a
1M
1c
0'
0$
b10000 `
b0 ;
b0 L
1,
#136
b11001010 2
#140
0,
#145
b1010 F
b1010 T
b1010 Y
b1010 \
b1010 !
b1010 3
b1010 P
b1010 Q
b1010 W
b1010 [
b1010 ]
b1010 f
b1010 g
1B
0A
b10 <
b10 X
1?
1C
0@
b11010000010 a
0M
0c
b1010 %
b1010 8
b1010 Z
b100 &
b100 :
b100001 `
1$
b1001010 d
b101000101100 (
b101000101100 G
b101000101100 O
b101000101100 ^
b101100 #
b101100 7
b101100 R
b101100 b
b1000 *
b1000 I
b1000 S
b1000 _
1,
#150
0,
#155
0B
1A
b0 <
b0 X
0?
0C
1@
b1000000001000 a
1M
1c
b1010 )
b1010 H
b1010 U
b1010 V
b100000 `
0$
1,
#160
0,
#165
1E
b1100 !
b1100 3
b1100 P
b1100 Q
b1100 W
b1100 [
b1100 ]
b1100 f
b1100 g
b10 K
05
b1110 F
b1110 T
b1110 Y
b1110 \
1B
0A
b1 <
b1 X
1?
0@
b1001000010 a
0M
0c
b1100 %
b1100 8
b1100 Z
b10 &
b10 :
b10001 `
1$
b101100 d
b110010100001 (
b110010100001 G
b110010100001 O
b110010100001 ^
b10100001 #
b10100001 7
b10100001 R
b10100001 b
b1001 *
b1001 I
b1001 S
b1001 _
1,
#170
0,
#175
b1010 !
b1010 3
b1010 P
b1010 Q
b1010 W
b1010 [
b1010 ]
b1010 f
b1010 g
b1010 F
b1010 T
b1010 Y
b1010 \
b0 K
0E
0B
1A
b0 <
b0 X
0?
1@
b1000000001000 a
1M
1c
1'
0$
b10100 `
b10 ;
b10 L
1,
#176
b11101011 2
#180
0,
#185
b1 !
b1 3
b1 P
b1 Q
b1 W
b1 [
b1 ]
b1 f
b1 g
b0 K
0E
b1011 F
b1011 T
b1011 Y
b1011 \
1B
0A
b11 <
b11 X
1?
1C
0@
b11011000010 a
0M
0c
b1 %
b1 8
b1 Z
b1010 &
b1010 :
b1010101 `
1$
b10100001 d
b111101011 (
b111101011 G
b111101011 O
b111101011 ^
b11101011 #
b11101011 7
b11101011 R
b11101011 b
b1010 *
b1010 I
b1010 S
b1010 _
1,
#190
0,
#195
b1011 !
b1011 3
b1011 P
b1011 Q
b1011 W
b1011 [
b1011 ]
b1011 f
b1011 g
0B
1A
b0 <
b0 X
0?
0C
1@
b1000000001000 a
b1011 F
b1011 T
b1011 Y
b1011 \
1M
1c
0'
b1011 )
b1011 H
b1011 U
b1011 V
0$
b1010000 `
b0 ;
b0 L
1,
#196
b100001100 2
#200
0,
#205
b1011 !
b1011 3
b1011 P
b1011 Q
b1011 W
b1011 [
b1011 ]
b1011 f
b1011 g
b100 F
b100 T
b100 Y
b100 \
1B
0A
b100 <
b100 X
1?
1C
0@
b11100000010 a
0M
0c
b1011 %
b1011 8
b1011 Z
b1110 &
b1110 :
b1110001 `
1$
b11101011 d
b101111010000 (
b101111010000 G
b101111010000 O
b101111010000 ^
b11010000 #
b11010000 7
b11010000 R
b11010000 b
b1011 *
b1011 I
b1011 S
b1011 _
1,
#210
0,
#215
b100 !
b100 3
b100 P
b100 Q
b100 W
b100 [
b100 ]
b100 f
b100 g
0B
1A
b0 <
b0 X
0?
0C
1@
b1000000001000 a
b0 K
05
b100 F
b100 T
b100 Y
b100 \
1M
1c
b100 )
b100 H
b100 U
b100 V
b1110000 `
0$
1,
#216
b101001110 2
#220
0,
#225
1=
0@
b1001 a
0M
0c
b0 %
b0 8
b0 Z
b1101 &
b1101 :
b1101001 `
1$
b11010000 d
b1010000 (
b1010000 G
b1010000 O
b1010000 ^
b1010000 #
b1010000 7
b1010000 R
b1010000 b
b1100 *
b1100 I
b1100 S
b1100 _
1,
#230
0,
#235
0=
1@
b1000000001000 a
1M
1c
b100 +
b100 J
b100 h
b1101000 `
0$
1,
#236
b1110 -
b1110 4
b1110 e
b101101111 2
#240
0,
#245
b1110 F
b1110 T
b1110 Y
b1110 \
b1110 !
b1110 3
b1110 P
b1110 Q
b1110 W
b1110 [
b1110 ]
b1110 f
b1110 g
1>
0A
b10 <
b10 X
1?
1C
0@
b11010000100 a
0M
0c
b101 &
b101 :
b101001 `
1$
b1010000 d
b1110000 (
b1110000 G
b1110000 O
b1110000 ^
b1110000 #
b1110000 7
b1110000 R
b1110000 b
b1101 *
b1101 I
b1101 S
b1101 _
1,
#250
0,
#255
0>
1A
b0 <
b0 X
0?
0C
1@
b1000000001000 a
1M
1c
b1110 )
b1110 H
b1110 U
b1110 V
b101000 `
0$
1,
#256
b110010000 2
#260
0,
#265
b1110 !
b1110 3
b1110 P
b1110 Q
b1110 W
b1110 [
b1110 ]
b1110 f
b1110 g
16
1D
b1000000111000 a
0M
0c
b111 &
b111 :
b111001 `
1$
b1110000 d
b0 (
b0 G
b0 O
b0 ^
b0 #
b0 7
b0 R
b0 b
b1110 *
b1110 I
b1110 S
b1110 _
1,
#270
0,
#275
06
0D
b1000000001000 a
1M
1c
b1001111 (
b1001111 G
b1001111 O
b1001111 ^
b1001111 #
b1001111 7
b1001111 R
b1001111 b
b1111 *
b1111 I
b1111 S
b1111 _
b111000 `
0$
1,
#280
0,
#285
b1111 F
b1111 T
b1111 Y
b1111 \
b1111 !
b1111 3
b1111 P
b1111 Q
b1111 W
b1111 [
b1111 ]
b1111 f
b1111 g
1B
0A
b10 <
b10 X
1?
1C
0@
b11010000010 a
0M
0c
b1111 %
b1111 8
b1111 Z
b100 &
b100 :
b100001 `
1$
b1001111 d
b111101110001 (
b111101110001 G
b111101110001 O
b111101110001 ^
b1110001 #
b1110001 7
b1110001 R
b1110001 b
b10000 *
b10000 I
b10000 S
b10000 _
1,
#290
0,
#295
0B
1A
b0 <
b0 X
0?
0C
1@
b1000000001000 a
1M
1c
b1111 )
b1111 H
b1111 U
b1111 V
b100000 `
0$
1,
#300
0,
#305
b1111 !
b1111 3
b1111 P
b1111 Q
b1111 W
b1111 [
b1111 ]
b1111 f
b1111 g
16
1D
b1000000111000 a
0M
0c
b1 %
b1 8
b1 Z
b111 &
b111 :
b111001 `
1$
b1110001 d
b100010001 (
b100010001 G
b100010001 O
b100010001 ^
b10001 #
b10001 7
b10001 R
b10001 b
b10001 *
b10001 I
b10001 S
b10001 _
1,
#310
0,
#315
06
0D
b1000000001000 a
1M
1c
b101001010 (
b101001010 G
b101001010 O
b101001010 ^
b1001010 #
b1001010 7
b1001010 R
b1001010 b
b10010 *
b10010 I
b10010 S
b10010 _
b111000 `
0$
1,
#320
0,
#325
b1010 F
b1010 T
b1010 Y
b1010 \
b1010 !
b1010 3
b1010 P
b1010 Q
b1010 W
b1010 [
b1010 ]
b1010 f
b1010 g
1B
0A
b10 <
b10 X
1?
1C
0@
b11010000010 a
0M
0c
b1010 %
b1010 8
b1010 Z
b100 &
b100 :
b100001 `
1$
b1001010 d
b101001110010 (
b101001110010 G
b101001110010 O
b101001110010 ^
b1110010 #
b1110010 7
b1110010 R
b1110010 b
b10011 *
b10011 I
b10011 S
b10011 _
1,
#330
0,
#335
0B
1A
b0 <
b0 X
0?
0C
1@
b1000000001000 a
1M
1c
b1010 )
b1010 H
b1010 U
b1010 V
b100000 `
0$
1,
#340
0,
#345
b1010 !
b1010 3
b1010 P
b1010 Q
b1010 W
b1010 [
b1010 ]
b1010 f
b1010 g
16
1D
b1000000111000 a
0M
0c
b10 %
b10 8
b10 Z
b111 &
b111 :
b111001 `
1$
b1110010 d
b1000100010 (
b1000100010 G
b1000100010 O
b1000100010 ^
b100010 #
b100010 7
b100010 R
b100010 b
b10100 *
b10100 I
b10100 S
b10100 _
1,
#350
0,
#355
06
0D
b1000000001000 a
1M
1c
b1001000001 (
b1001000001 G
b1001000001 O
b1001000001 ^
b1000001 #
b1000001 7
b1000001 R
b1000001 b
b10101 *
b10101 I
b10101 S
b10101 _
b111000 `
0$
1,
#360
0,
#365
b1 F
b1 T
b1 Y
b1 \
b1 !
b1 3
b1 P
b1 Q
b1 W
b1 [
b1 ]
b1 f
b1 g
1B
0A
b10 <
b10 X
1?
1C
0@
b11010000010 a
0M
0c
b1 %
b1 8
b1 Z
b100 &
b100 :
b100001 `
1$
b1000001 d
b101110011 (
b101110011 G
b101110011 O
b101110011 ^
b1110011 #
b1110011 7
b1110011 R
b1110011 b
b10110 *
b10110 I
b10110 S
b10110 _
1,
#370
0,
#375
0B
1A
b0 <
b0 X
0?
0C
1@
b1000000001000 a
1M
1c
b1 )
b1 H
b1 U
b1 V
b100000 `
0$
1,
#380
0,
#385
b1 !
b1 3
b1 P
b1 Q
b1 W
b1 [
b1 ]
b1 f
b1 g
16
1D
b1000000111000 a
0M
0c
b11 %
b11 8
b11 Z
b111 &
b111 :
b111001 `
1$
b1110011 d
b1100110011 (
b1100110011 G
b1100110011 O
b1100110011 ^
b110011 #
b110011 7
b110011 R
b110011 b
b10111 *
b10111 I
b10111 S
b10111 _
1,
#390
0,
#395
06
0D
b1000000001000 a
1M
1c
b1101100000 (
b1101100000 G
b1101100000 O
b1101100000 ^
b1100000 #
b1100000 7
b1100000 R
b1100000 b
b11000 *
b11000 I
b11000 S
b11000 _
b111000 `
0$
1,
#400
0,
#405
b1110 F
b1110 T
b1110 Y
b1110 \
b1110 !
b1110 3
b1110 P
b1110 Q
b1110 W
b1110 [
b1110 ]
b1110 f
b1110 g
0A
1D
b10 <
b10 X
1?
1C
b1011010100000 a
0M
0c
b0 %
b0 8
b0 Z
b110 &
b110 :
b110001 `
1$
b1100000 d
b0 (
b0 G
b0 O
b0 ^
b0 #
b0 7
b0 R
b0 b
b11001 *
b11001 I
b11001 S
b11001 _
1,
#410
0,
#415
1A
0D
b0 <
b0 X
0?
0C
b1000000001000 a
b1110 F
b1110 T
b1110 Y
b1110 \
b1110 !
b1110 3
b1110 P
b1110 Q
b1110 W
b1110 [
b1110 ]
b1110 f
b1110 g
1M
1c
b1100001 (
b1100001 G
b1100001 O
b1100001 ^
b1100001 #
b1100001 7
b1100001 R
b1100001 b
b11010 *
b11010 I
b11010 S
b11010 _
b1110 )
b1110 H
b1110 U
b1110 V
b110000 `
0$
1,
#420
0,
#425
b1111 F
b1111 T
b1111 Y
b1111 \
b1111 !
b1111 3
b1111 P
b1111 Q
b1111 W
b1111 [
b1111 ]
b1111 f
b1111 g
0A
1D
b10 <
b10 X
1?
1C
b1011010100000 a
0M
0c
b1 %
b1 8
b1 Z
b110001 `
1$
b1100001 d
b100010001 (
b100010001 G
b100010001 O
b100010001 ^
b10001 #
b10001 7
b10001 R
b10001 b
b11011 *
b11011 I
b11011 S
b11011 _
1,
#430
0,
#435
1A
0D
b0 <
b0 X
0?
0C
b1000000001000 a
b1111 F
b1111 T
b1111 Y
b1111 \
b1111 !
b1111 3
b1111 P
b1111 Q
b1111 W
b1111 [
b1111 ]
b1111 f
b1111 g
1M
1c
b101100010 (
b101100010 G
b101100010 O
b101100010 ^
b1100010 #
b1100010 7
b1100010 R
b1100010 b
b11100 *
b11100 I
b11100 S
b11100 _
b1111 )
b1111 H
b1111 U
b1111 V
b110000 `
0$
1,
#440
0,
#445
b1010 F
b1010 T
b1010 Y
b1010 \
b1010 !
b1010 3
b1010 P
b1010 Q
b1010 W
b1010 [
b1010 ]
b1010 f
b1010 g
0A
1D
b10 <
b10 X
1?
1C
b1011010100000 a
0M
0c
b10 %
b10 8
b10 Z
b110001 `
1$
b1100010 d
b1000100010 (
b1000100010 G
b1000100010 O
b1000100010 ^
b100010 #
b100010 7
b100010 R
b100010 b
b11101 *
b11101 I
b11101 S
b11101 _
1,
#450
0,
#455
1A
0D
b0 <
b0 X
0?
0C
b1000000001000 a
b1010 F
b1010 T
b1010 Y
b1010 \
b1010 !
b1010 3
b1010 P
b1010 Q
b1010 W
b1010 [
b1010 ]
b1010 f
b1010 g
1M
1c
b1001100011 (
b1001100011 G
b1001100011 O
b1001100011 ^
b1100011 #
b1100011 7
b1100011 R
b1100011 b
b11110 *
b11110 I
b11110 S
b11110 _
b1010 )
b1010 H
b1010 U
b1010 V
b110000 `
0$
1,
#460
0,
#465
b1 F
b1 T
b1 Y
b1 \
b1 !
b1 3
b1 P
b1 Q
b1 W
b1 [
b1 ]
b1 f
b1 g
0A
1D
b10 <
b10 X
1?
1C
b1011010100000 a
0M
0c
b11 %
b11 8
b11 Z
b110001 `
1$
b1100011 d
b1100110011 (
b1100110011 G
b1100110011 O
b1100110011 ^
b110011 #
b110011 7
b110011 R
b110011 b
b11111 *
b11111 I
b11111 S
b11111 _
1,
#470
0,
#475
1A
0D
b0 <
b0 X
0?
0C
b1000000001000 a
b1 F
b1 T
b1 Y
b1 \
b1 !
b1 3
b1 P
b1 Q
b1 W
b1 [
b1 ]
b1 f
b1 g
1M
1c
b1101001010 (
b1101001010 G
b1101001010 O
b1101001010 ^
b1001010 #
b1001010 7
b1001010 R
b1001010 b
b100000 *
b100000 I
b100000 S
b100000 _
b1 )
b1 H
b1 U
b1 V
b110000 `
0$
1,
#476
b111100000 2
#480
0,
#485
b1010 F
b1010 T
b1010 Y
b1010 \
b1010 !
b1010 3
b1010 P
b1010 Q
b1010 W
b1010 [
b1010 ]
b1010 f
b1010 g
1B
0A
b10 <
b10 X
1?
1C
0@
b11010000010 a
0M
0c
b1010 %
b1010 8
b1010 Z
b100 &
b100 :
b100001 `
1$
b1001010 d
b101011110010 (
b101011110010 G
b101011110010 O
b101011110010 ^
b11110010 #
b11110010 7
b11110010 R
b11110010 b
b100001 *
b100001 I
b100001 S
b100001 _
1,
#490
0,
#495
0B
1A
b0 <
b0 X
0?
0C
1@
b1000000001000 a
1M
1c
b1010 )
b1010 H
b1010 U
b1010 V
b100000 `
0$
1,
#500
0,
#505
b1010 !
b1010 3
b1010 P
b1010 Q
b1010 W
b1010 [
b1010 ]
b1010 f
b1010 g
b101 F
b101 T
b101 Y
b101 \
0A
1D
b100 <
b100 X
1?
1C
b1011100100000 a
0M
0c
b10 %
b10 8
b10 Z
b1111 &
b1111 :
b1111001 `
1$
b11110010 d
b1000100010 (
b1000100010 G
b1000100010 O
b1000100010 ^
b100010 #
b100010 7
b100010 R
b100010 b
b100010 *
b100010 I
b100010 S
b100010 _
1,
#510
0,
#515
1A
0D
b0 <
b0 X
0?
0C
b1000000001000 a
b101 !
b101 3
b101 P
b101 Q
b101 W
b101 [
b101 ]
b101 f
b101 g
b0 K
05
b101 F
b101 T
b101 Y
b101 \
1M
1c
b1001001111 (
b1001001111 G
b1001001111 O
b1001001111 ^
b1001111 #
b1001111 7
b1001111 R
b1001111 b
b100011 *
b100011 I
b100011 S
b100011 _
b101 )
b101 H
b101 U
b101 V
b1111000 `
0$
1,
#516
b1000001000 2
#520
0,
#525
b1111 F
b1111 T
b1111 Y
b1111 \
b1111 !
b1111 3
b1111 P
b1111 Q
b1111 W
b1111 [
b1111 ]
b1111 f
b1111 g
1B
0A
b10 <
b10 X
1?
1C
0@
b11010000010 a
0M
0c
b1111 %
b1111 8
b1111 Z
b100 &
b100 :
b100001 `
1$
b1001111 d
b111110110011 (
b111110110011 G
b111110110011 O
b111110110011 ^
b10110011 #
b10110011 7
b10110011 R
b10110011 b
b100100 *
b100100 I
b100100 S
b100100 _
1,
#530
0,
#535
0B
1A
b0 <
b0 X
0?
0C
1@
b1000000001000 a
1M
1c
b1111 )
b1111 H
b1111 U
b1111 V
b100000 `
0$
1,
#540
0,
#545
15
b1 !
b1 3
b1 P
b1 Q
b1 W
b1 [
b1 ]
b1 f
b1 g
b11 K
1E
b0 F
b0 T
b0 Y
b0 \
0A
1D
b11 <
b11 X
1?
1C
b1011011100000 a
0M
0c
b11 %
b11 8
b11 Z
b1011 &
b1011 :
b1011001 `
1$
b10110011 d
b1100110011 (
b1100110011 G
b1100110011 O
b1100110011 ^
b110011 #
b110011 7
b110011 R
b110011 b
b100101 *
b100101 I
b100101 S
b100101 _
1,
#550
0,
#555
1A
0D
b0 <
b0 X
0?
0C
b1000000001000 a
b0 !
b0 3
b0 P
b0 Q
b0 W
b0 [
b0 ]
b0 f
b0 g
15
b0 F
b0 T
b0 Y
b0 \
b1 K
0E
1M
1c
1"
1'
b1101001000 (
b1101001000 G
b1101001000 O
b1101001000 ^
b1001000 #
b1001000 7
b1001000 R
b1001000 b
b100110 *
b100110 I
b100110 S
b100110 _
b0 )
b0 H
b0 U
b0 V
0$
b1011110 `
b11 ;
b11 L
1,
#556
b1000110000 2
#560
0,
#565
b0 K
05
b1000 F
b1000 T
b1000 Y
b1000 \
b1000 !
b1000 3
b1000 P
b1000 Q
b1000 W
b1000 [
b1000 ]
b1000 f
b1000 g
1B
0A
b10 <
b10 X
1?
1C
0@
b11010000010 a
0M
0c
b1000 %
b1000 8
b1000 Z
b100 &
b100 :
b100111 `
1$
b1001000 d
b100000110010 (
b100000110010 G
b100000110010 O
b100000110010 ^
b110010 #
b110010 7
b110010 R
b110010 b
b100111 *
b100111 I
b100111 S
b100111 _
1,
#570
0,
#575
0B
1A
b0 <
b0 X
0?
0C
1@
b1000000001000 a
1M
1c
0"
0'
b1000 )
b1000 H
b1000 U
b1000 V
0$
b100000 `
b0 ;
b0 L
1,
#580
0,
#585
1E
b1010 !
b1010 3
b1010 P
b1010 Q
b1010 W
b1010 [
b1010 ]
b1010 f
b1010 g
b10 K
05
b1110 F
b1110 T
b1110 Y
b1110 \
0A
1D
b1 <
b1 X
1?
b1001001100000 a
0M
0c
b10 %
b10 8
b10 Z
b11 &
b11 :
b11001 `
1$
b110010 d
b1000100010 (
b1000100010 G
b1000100010 O
b1000100010 ^
b100010 #
b100010 7
b100010 R
b100010 b
b101000 *
b101000 I
b101000 S
b101000 _
1,
#590
0,
#595
1A
0D
b0 <
b0 X
0?
b1000000001000 a
b1000 F
b1000 T
b1000 Y
b1000 \
b0 K
0E
b1000 !
b1000 3
b1000 P
b1000 Q
b1000 W
b1000 [
b1000 ]
b1000 f
b1000 g
1M
1c
1'
b1001001100 (
b1001001100 G
b1001001100 O
b1001001100 ^
b1001100 #
b1001100 7
b1001100 R
b1001100 b
b101001 *
b101001 I
b101001 S
b101001 _
0$
b11100 `
b10 ;
b10 L
1,
#596
b1001000100 2
#600
0,
#605
b1100 F
b1100 T
b1100 Y
b1100 \
b1100 !
b1100 3
b1100 P
b1100 Q
b1100 W
b1100 [
b1100 ]
b1100 f
b1100 g
1B
0A
b10 <
b10 X
1?
1C
0@
b11010000010 a
0M
0c
b1100 %
b1100 8
b1100 Z
b100 &
b100 :
b100101 `
1$
b1001100 d
b110000110010 (
b110000110010 G
b110000110010 O
b110000110010 ^
b110010 #
b110010 7
b110010 R
b110010 b
b101010 *
b101010 I
b101010 S
b101010 _
1,
#610
0,
#615
0B
1A
b0 <
b0 X
0?
0C
1@
b1000000001000 a
1M
1c
0'
b1100 )
b1100 H
b1100 U
b1100 V
0$
b100000 `
b0 ;
b0 L
1,
#620
0,
#625
b1010 !
b1010 3
b1010 P
b1010 Q
b1010 W
b1010 [
b1010 ]
b1010 f
b1010 g
b0 K
05
b10 F
b10 T
b10 Y
b10 \
0A
1D
b1 <
b1 X
1?
b1001001100000 a
0M
0c
b10 %
b10 8
b10 Z
b11 &
b11 :
b11001 `
1$
b110010 d
b1000100010 (
b1000100010 G
b1000100010 O
b1000100010 ^
b100010 #
b100010 7
b100010 R
b100010 b
b101011 *
b101011 I
b101011 S
b101011 _
1,
#630
0,
